{
  "project_info": {
    "project_number": "143931632142",
    "firebase_url": "https://expion-1149.firebaseio.com",
    "project_id": "expion-1149",
    "storage_bucket": "expion-1149.appspot.com"
  },
  "client": [
    {
      "client_info": {
        "mobilesdk_app_id": "1:143931632142:android:54286a60355d1856",
        "android_client_info": {
          "package_name": "com.Expion.Expion"
        }
      },
      "oauth_client": [
        {
          "client_id": "143931632142-095sr646k6qqhpv245k2hgdhc5gkkurr.apps.googleusercontent.com",
          "client_type": 1,
          "android_info": {
            "package_name": "com.Expion.Expion",
            "certificate_hash": "6d9869f6fa1282003f7367666007d8369f400557"
          }
        },
        {
          "client_id": "143931632142-ggj1e3ai9kuir6nf7gesp4324irj8r9f.apps.googleusercontent.com",
          "client_type": 3
        }
      ],
      "api_key": [
        {
          "current_key": "AIzaSyCp_o9Jq8p1YMZFjV9w6OtP89GF9p0XdkQ"
        }
      ],
      "services": {
        "analytics_service": {
          "status": 1
        },
        "appinvite_service": {
          "status": 2,
          "other_platform_oauth_client": [
            {
              "client_id": "143931632142-ggj1e3ai9kuir6nf7gesp4324irj8r9f.apps.googleusercontent.com",
              "client_type": 3
            }
          ]
        },
        "ads_service": {
          "status": 2
        }
      }
    }
  ],
  "configuration_version": "1"
}